%YAML 1.1
%TAG !u! tag:unity3d.com,2011:
--- !u!1045 &1
EditorBuildSettings:
  m_ObjectHideFlags: 0
  serializedVersion: 2
  m_Scenes:
  - enabled: 1
    path: Assets/MagicPoiProject/Scenes/Demo Creative Jam.unity
    guid: d87fd16d10093fa43ae24bac003af48d
  m_configObjects: {}
